<?xml version="1.0" encoding="UTF-8"?>
<svg height="128px" viewBox="0 0 128 128" width="128px" xmlns="http://www.w3.org/2000/svg" xmlns:xlink="http://www.w3.org/1999/xlink">
    <linearGradient id="a" gradientTransform="matrix(1.076923 0 0 1.066667 -4.923042 -186.932869)" gradientUnits="userSpaceOnUse" x1="11.999994" x2="116" y1="254" y2="254">
        <stop offset="0" stop-color="#77767b"/>
        <stop offset="0.0384616" stop-color="#c0bfbc"/>
        <stop offset="0.0769231" stop-color="#77767b"/>
        <stop offset="0.923077" stop-color="#77767b"/>
        <stop offset="0.961538" stop-color="#c0bfbc"/>
        <stop offset="1" stop-color="#77767b"/>
    </linearGradient>
    <linearGradient id="b" gradientUnits="userSpaceOnUse">
        <stop offset="0" stop-color="#5e5c64"/>
        <stop offset="1" stop-color="#77767b"/>
    </linearGradient>
    <linearGradient id="c" gradientTransform="matrix(0 1 -1 0 233.000053 21.000457)" x1="19" x2="31" xlink:href="#b" y1="209" y2="209"/>
    <linearGradient id="d" gradientTransform="matrix(0 1 -1 0 309.000058 65.000483)" x1="19" x2="31" xlink:href="#b" y1="209" y2="209"/>
    <linearGradient id="e" gradientTransform="matrix(0 1 -1 0 257.000053 65.000457)" gradientUnits="userSpaceOnUse" x1="17" x2="31" y1="209" y2="209">
        <stop offset="0" stop-color="#aeadab"/>
        <stop offset="1" stop-color="#ceccc8"/>
    </linearGradient>
    <linearGradient id="f" gradientTransform="matrix(0 1 -1 0 253.000043 21.000467)" x1="19" x2="31" xlink:href="#b" y1="209" y2="209"/>
    <linearGradient id="g" gradientTransform="matrix(0 1 -1 0 273.000044 21.000466)" x1="19" x2="31" xlink:href="#b" y1="209" y2="209"/>
    <linearGradient id="h" gradientTransform="matrix(0 1 -1 0 293.000044 21.000466)" x1="19" x2="31" xlink:href="#b" y1="209" y2="209"/>
    <linearGradient id="i" gradientTransform="matrix(0 1 -1 0 313.000042 21.000468)" x1="19" x2="31" xlink:href="#b" y1="209" y2="209"/>
    <linearGradient id="j" gradientTransform="matrix(0 1 -1 0 243.000053 43.000457)" x1="19" x2="31" xlink:href="#b" y1="209" y2="209"/>
    <linearGradient id="k" gradientTransform="matrix(0 1 -1 0 263.000053 43.000457)" x1="19" x2="31" xlink:href="#b" y1="209" y2="209"/>
    <linearGradient id="l" gradientTransform="matrix(0 1 -1 0 283.000043 43.000467)" x1="19" x2="31" xlink:href="#b" y1="209" y2="209"/>
    <linearGradient id="m" gradientTransform="matrix(0 1 -1 0 313.000044 43.000466)" gradientUnits="userSpaceOnUse" x1="19" x2="31" y1="209" y2="209">
        <stop offset="0" stop-color="#e66100"/>
        <stop offset="1" stop-color="#ff7800"/>
    </linearGradient>
    <linearGradient id="n" gradientTransform="matrix(0 1 -1 0 237.000053 65.000457)" x1="19" x2="31" xlink:href="#b" y1="209" y2="209"/>
    <path d="m 16 52 h 96 c 4.417969 0 8 3.582031 8 8 v 48 c 0 4.417969 -3.582031 8 -8 8 h -96 c -4.417969 0 -8 -3.582031 -8 -8 v -48 c 0 -4.417969 3.582031 -8 8 -8 z m 0 0" fill="url(#a)"/>
    <path d="m 16 28 h 96 c 4.417969 0 8 3.960938 8 8.84375 v 66.316406 c 0 4.882813 -3.582031 8.839844 -8 8.839844 h -96 c -4.417969 0 -8 -3.957031 -8 -8.839844 v -66.316406 c 0 -4.882812 3.582031 -8.84375 8 -8.84375 z m 0 0" fill="#f6f5f4"/>
    <path d="m 21 40 h 6 c 2.214844 0 3.78125 1.796875 4 4 l 1 10 c 0.21875 2.207031 -1.785156 4 -4 4 h -8 c -2.214844 0 -4.21875 -1.792969 -4 -4 l 1 -10 c 0.21875 -2.203125 1.785156 -4 4 -4 z m 0 0" fill="#3d3846"/>
    <path d="m 31 44 v 4 c 0 2.214844 -1.785156 4 -4 4 h -6 c -2.214844 0 -4 -1.785156 -4 -4 v -4 c 0 -2.214844 1.785156 -4 4 -4 h 6 c 2.214844 0 4 1.785156 4 4 z m 0 0" fill="url(#c)"/>
    <g fill="#3d3846">
        <path d="m 41 40 h 6 c 2.214844 0 3.78125 1.796875 4 4 l 1 10 c 0.21875 2.207031 -1.785156 4 -4 4 h -8 c -2.214844 0 -4.21875 -1.792969 -4 -4 l 1 -10 c 0.21875 -2.203125 1.785156 -4 4 -4 z m 0 0"/>
        <path d="m 61 40 h 6 c 2.214844 0 3.78125 1.796875 4 4 l 1 10 c 0.21875 2.207031 -1.785156 4 -4 4 h -8 c -2.214844 0 -4.21875 -1.792969 -4 -4 l 1 -10 c 0.21875 -2.203125 1.785156 -4 4 -4 z m 0 0"/>
        <path d="m 81 40 h 6 c 2.214844 0 3.78125 1.796875 4 4 l 1 10 c 0.21875 2.207031 -1.785156 4 -4 4 h -8 c -2.214844 0 -4.21875 -1.792969 -4 -4 l 1 -10 c 0.21875 -2.203125 1.785156 -4 4 -4 z m 0 0"/>
        <path d="m 101 40 h 6 c 2.214844 0 3.78125 1.796875 4 4 l 1 10 c 0.21875 2.207031 -1.785156 4 -4 4 h -8 c -2.214844 0 -4.21875 -1.792969 -4 -4 l 1 -10 c 0.21875 -2.203125 1.785156 -4 4 -4 z m 0 0"/>
        <path d="m 31 62 h 6 c 2.214844 0 3.78125 1.796875 4 4 l 1 10 c 0.21875 2.207031 -1.785156 4 -4 4 h -8 c -2.214844 0 -4.21875 -1.792969 -4 -4 l 1 -10 c 0.21875 -2.203125 1.785156 -4 4 -4 z m 0 0"/>
        <path d="m 51 62 h 6 c 2.214844 0 3.78125 1.796875 4 4 l 1 10 c 0.21875 2.207031 -1.785156 4 -4 4 h -8 c -2.214844 0 -4.21875 -1.792969 -4 -4 l 1 -10 c 0.21875 -2.203125 1.785156 -4 4 -4 z m 0 0"/>
        <path d="m 71 62 h 6 c 2.214844 0 3.78125 1.796875 4 4 l 1 10 c 0.21875 2.207031 -1.785156 4 -4 4 h -8 c -2.214844 0 -4.21875 -1.792969 -4 -4 l 1 -10 c 0.21875 -2.203125 1.785156 -4 4 -4 z m 0 0"/>
    </g>
    <path d="m 91 62 h 7 c 2.214844 0 3.78125 1.796875 4 4 l 1 10 c 0.21875 2.207031 -1.785156 4 -4 4 h -9 c -2.214844 0 -4.21875 -1.792969 -4 -4 l 1 -10 c 0.21875 -2.203125 1.785156 -4 4 -4 z m 0 0" fill="#c64600"/>
    <path d="m 25 84 h 6 c 2.214844 0 3.78125 1.796875 4 4 l 1 10 c 0.21875 2.207031 -1.785156 4 -4 4 h -8 c -2.214844 0 -4.21875 -1.792969 -4 -4 l 1 -10 c 0.21875 -2.203125 1.785156 -4 4 -4 z m 0 0" fill="#3d3846"/>
    <path d="m 97 84 h 6 c 2.214844 0 3.78125 1.796875 4 4 l 1 10 c 0.21875 2.207031 -1.785156 4 -4 4 h -8 c -2.214844 0 -4.21875 -1.792969 -4 -4 l 1 -10 c 0.21875 -2.203125 1.785156 -4 4 -4 z m 0 0" fill="#3d3846"/>
    <path d="m 107 88 v 4 c 0 2.214844 -1.785156 4 -4 4 h -6 c -2.214844 0 -4 -1.785156 -4 -4 v -4 c 0 -2.214844 1.785156 -4 4 -4 h 6 c 2.214844 0 4 1.785156 4 4 z m 0 0" fill="url(#d)"/>
    <path d="m 45 84 h 38 c 2.214844 0 3.78125 1.796875 4 4 l 1 10 c 0.21875 2.207031 -1.785156 4 -4 4 h -40 c -2.214844 0 -4.21875 -1.792969 -4 -4 l 1 -10 c 0.21875 -2.203125 1.785156 -4 4 -4 z m 0 0" fill="#828186"/>
    <path d="m 87 88 v 4 c 0 2.214844 -1.785156 4 -4 4 h -38 c -2.214844 0 -4 -1.785156 -4 -4 v -4 c 0 -2.214844 1.785156 -4 4 -4 h 38 c 2.214844 0 4 1.785156 4 4 z m 0 0" fill="url(#e)"/>
    <path d="m 51 44 v 4 c 0 2.214844 -1.785156 4 -4 4 h -6 c -2.214844 0 -4 -1.785156 -4 -4 v -4 c 0 -2.214844 1.785156 -4 4 -4 h 6 c 2.214844 0 4 1.785156 4 4 z m 0 0" fill="url(#f)"/>
    <path d="m 71 44 v 4 c 0 2.214844 -1.785156 4 -4 4 h -6 c -2.214844 0 -4 -1.785156 -4 -4 v -4 c 0 -2.214844 1.785156 -4 4 -4 h 6 c 2.214844 0 4 1.785156 4 4 z m 0 0" fill="url(#g)"/>
    <path d="m 91 44 v 4 c 0 2.214844 -1.785156 4 -4 4 h -6 c -2.214844 0 -4 -1.785156 -4 -4 v -4 c 0 -2.214844 1.785156 -4 4 -4 h 6 c 2.214844 0 4 1.785156 4 4 z m 0 0" fill="url(#h)"/>
    <path d="m 111 44 v 4 c 0 2.214844 -1.785156 4 -4 4 h -6 c -2.214844 0 -4 -1.785156 -4 -4 v -4 c 0 -2.214844 1.785156 -4 4 -4 h 6 c 2.214844 0 4 1.785156 4 4 z m 0 0" fill="url(#i)"/>
    <path d="m 41 66 v 4 c 0 2.214844 -1.785156 4 -4 4 h -6 c -2.214844 0 -4 -1.785156 -4 -4 v -4 c 0 -2.214844 1.785156 -4 4 -4 h 6 c 2.214844 0 4 1.785156 4 4 z m 0 0" fill="url(#j)"/>
    <path d="m 61 66 v 4 c 0 2.214844 -1.785156 4 -4 4 h -6 c -2.214844 0 -4 -1.785156 -4 -4 v -4 c 0 -2.214844 1.785156 -4 4 -4 h 6 c 2.214844 0 4 1.785156 4 4 z m 0 0" fill="url(#k)"/>
    <path d="m 81 66 v 4 c 0 2.214844 -1.785156 4 -4 4 h -6 c -2.214844 0 -4 -1.785156 -4 -4 v -4 c 0 -2.214844 1.785156 -4 4 -4 h 6 c 2.214844 0 4 1.785156 4 4 z m 0 0" fill="url(#l)"/>
    <path d="m 102 66 v 4 c 0 2.214844 -1.785156 4 -4 4 h -7 c -2.214844 0 -4 -1.785156 -4 -4 v -4 c 0 -2.214844 1.785156 -4 4 -4 h 7 c 2.214844 0 4 1.785156 4 4 z m 0 0" fill="url(#m)"/>
    <path d="m 35 88 v 4 c 0 2.214844 -1.785156 4 -4 4 h -6 c -2.214844 0 -4 -1.785156 -4 -4 v -4 c 0 -2.214844 1.785156 -4 4 -4 h 6 c 2.214844 0 4 1.785156 4 4 z m 0 0" fill="url(#n)"/>
</svg>
